{
  "uri" : "https://platform.ringcentral.com/restapi/v1.0/account/230919004/extension/230919004/message-store?messageType=Fax&availability=Alive&dateFrom=2018-10-07T09:19:00.000Z&page=1&perPage=100",
  "records" : [ ... ,
    {
      "uri": "https://platform.ringcentral.com/restapi/v1.0/account/230919004/extension/230919004/message-store/5209304004",
      "id": 5209304004,
      "from": {
        "phoneNumber": "+12138887464"
      },
      "type": "Fax",
      "creationTime": "2018-10-08T09:17:27.000Z",
      "readStatus": "Unread",
      "priority": "Normal",
      "attachments": [
        {
          "id": 5209304004,
          "uri": "https://media.ringcentral.com/restapi/v1.0/account/230919004/extension/230919004/message-store/5209304004/content/5209304004",
          "type": "RenderedDocument",
          "contentType": "application/pdf"
        }
      ],
      "direction": "Inbound",
      "availability": "Alive",
      "subject": "+12135559976",
      "messageStatus": "Received",
      "faxResolution": "High",
      "faxPageCount": 1,
      "lastModifiedTime": "2018-10-08T09:17:27.227Z"
    },
  ... ],
  "paging" : {
      "page" : 1,
      "totalPages" : 3,
      "perPage" : 100,
      "totalElements" : 274,
      "pageStart" : 0,
      "pageEnd" : 99
    },
    "navigation" : {
      "nextPage" : { "uri" : "https://platform.devtest.ringcentral.com/restapi/v1.0/account/230919004/extension/230919004/message-store?messageType=Fax&availability=Alive&dateFrom=2018-10-07T08:56:00.000Z&page=2&perPage=100" },
      "firstPage" : { "uri" : "https://platform.devtest.ringcentral.com/restapi/v1.0/account/230919004/extension/230919004/message-store?messageType=Fax&availability=Alive&dateFrom=2018-10-07T08:56:00.000Z&page=1&perPage=100" },
"lastPage" : { "uri" : "https://platform.devtest.ringcentral.com/restapi/v1.0/account/230919004/extension/230919004/message-store?messageType=Fax&availability=Alive&dateFrom=2018-10-07T08:56:00.000Z&page=3&perPage=100" }
    }
}
